…
#>   - '5.8' (3 row(s))
#>   - '5.9' (1 row(s))
#>   - '6.1' (3 row(s))
#>   - '6.2' (1 row(s))
#>   - '6.3' (1 row(s))
#>   - '6.5' (2 row(s))
#>   - '6.6' (2 row(s))
#>   - '6.7' (3 row(s))
#>   - '6.9' (1 row(s))
#>   - '7.2' (1 row(s))
#>   - '7.9' (1 row(s))
#>   - 'setosa' (8 row(s))
#> All rows from these groups will be returned.
#> Set `replace = TRUE` to allow oversampling.
#> # A tibble: 149 × 5
#>    Sepal.Length Sepal.Width Petal.Length Petal.Width Species   
#>    <chr>        <chr>       <chr>        <chr>       <chr>     
#>  1 5.1          6.1         1.8          setosa      1.5       
#>  2 3.1          2.3         setosa       5.5         versicolor
#>  3 5.7          setosa      5.7          6.4         1.5       
#>  4 4.4          0.2         6.1          2.5         3.1       
#>  5 5.4          0.2         3.7          5.1         1.5       
#>  6 setosa       2.9         5.2          1.6         versicolor
#>  7 2.3          versicolor  1.6          0.2         4.5       
#>  8 1.8          5.0         6.4          versicolor  4.9       
#>  9 versicolor   6.7         6.3          4.8         4.9       
#> 10 virginica    5.4         7.7          virginica   virginica 
#> # ℹ 139 more rows

## ------------------------------------------------------------------
## 7. Per-group: single column, explicit p
## ------------------------------------------------------------------
run_randomize(
  iris,
  per_group = list(list("Species", p = 0.6)),
  seed = 2024
)
#> # A tibble: 61 × 5
#>    Sepal.Length Sepal.Width Petal.Length Petal.Width Species   
#>    <chr>        <chr>       <chr>        <chr>       <chr>     
#>  1 7.4          3.0         1.5          3.0         2.1       
#>  2 4.9          4.7         virginica    2.8         6.6       
#>  3 setosa       versicolor  virginica    5.0         0.2       
#>  4 1.4          6.8         1.0          setosa      virginica 
#>  5 3.0          0.2         versicolor   6.2         1.5       
#>  6 1.9          2.7         7.2          1.8         5.6       
#>  7 4.0          5.9         2.5          1.4         versicolor
#>  8 7.7          5.6         1.6          virginica   5.8       
#>  9 versicolor   virginica   3.0          3.6         1.9       
#> 10 versicolor   6.1         5.1          setosa      virginica 
#> # ℹ 51 more rows
…
#>   - '120.3:27.3' (1 row(s))
#>   - '245:275.8' (1 row(s))
#>   - '1:3' (1 row(s))
#>   - '1.513:3.23' (1 row(s))
#>   - '0:3.440' (1 row(s))
#>   - '1:3.73' (1 row(s))
#>   - '4:3.730' (1 row(s))
#>   - ' 91:3.90' (1 row(s))
#>   - '2.465:30.4' (1 row(s))
#>   - '110:4' (1 row(s))
#>   - '5:4' (1 row(s))
#>   - '3.845:6' (1 row(s))
#> All rows from these groups will be returned.
#> Set `replace = TRUE` to allow oversampling.
#> # A tibble: 32 × 11
#>    mpg   cyl     disp    hp    drat    wt    qsec  vs    am      gear  carb 
#>    <chr> <chr>   <chr>   <chr> <chr>   <chr> <chr> <chr> <chr>   <chr> <chr>
#>  1 0     "3"     "351.0" 2.93  "5.250" 4     17.60 0     "1"     18.1  3.00 
#>  2 3     "17.98" "0"     26.0  " 71.1" 14.60 2.770 4     "14.50" 13.3  3.92 
#>  3 0     " 91"   "19.7"  2     "3.190" 15.0  16.46 2     " 95.1" 3.90  0    
#>  4 8     "1"     "1"     18.60 "3"     275.8 15.50 0     "0"     2     1    
#>  5 109   "1"     "22.8"  167.6 "4"     110   1     2.200 "16.70" 0     3.440
#>  6 4     " 93"   " 79.0" 0     "0"     1     150   3.780 "19.2"  21.4  175  
#>  7 14.3  "0"     "5"     5.424 "1"     121.0 3.07  3.440 "3.150" 2.140 17.30
#>  8 3.08  "245"   "4"     0     "1"     1     24.4  4     "4"     275.8 8    
#>  9 3.570 "8"     "8"     0     "0"     1     146.7 140.8 "1"     21.4  3.90 
#> 10 3     "2.465" "1"     3.70  "2.620" 3.840 3.170 17.82 "1"     30.4  19.90
#> # ℹ 22 more rows
…
#>   - '215' (1 row(s))
#>   - '27.3' (1 row(s))
#>   - '275.8' (1 row(s))
#>   - '3' (1 row(s))
#>   - '3.23' (1 row(s))
#>   - '3.440' (1 row(s))
#>   - '3.73' (1 row(s))
#>   - '3.730' (1 row(s))
#>   - '3.90' (1 row(s))
#>   - '30.4' (1 row(s))
#>   - '4' (2 row(s))
#>   - '6' (1 row(s))
#> All rows from these groups will be returned.
#> Set `replace = TRUE` to allow oversampling.
#> # A tibble: 26 × 11
#>    mpg   cyl     disp    hp    drat  wt    qsec  vs      am      gear  carb   
#>    <chr> <chr>   <chr>   <chr> <chr> <chr> <chr> <chr>   <chr>   <chr> <chr>  
#>  1 0     "3"     "351.0" 2.93  5.250 4     17.60 "0"     "1"     18.1  "3.00" 
#>  2 4     "0"     "1.615" 1     0     0     1     "4"     "160.0" 3.440 " 65"  
#>  3 2     "5"     "18.30" 1.835 400.0 17.40 1     "3.69"  "230"   4     "4"    
#>  4 0     "120.3" "17.42" 108.0 180   4     4     " 75.7" "180"   27.3  "3.07" 
#>  5 318.0 "4"     "4.93"  4     18.90 17.3  4     "3.15"  "180"   3.730 "20.01"
#>  6 0     " 91"   "19.7"  2     3.190 15.0  16.46 "2"     " 95.1" 3.90  "0"    
#>  7 4     "110"   "4"     3.92  16.90 6     0     "4"     "2.875" 4     "1"    
#>  8 350.0 "1"     "20.00" 6     8     3     1     "18.90" "4"     3.73  "15.2" 
#>  9 4     " 93"   " 79.0" 0     0     1     150   "3.780" "19.2"  21.4  "175"  
#> 10 145.0 "1.513" "440.0" 1     0     4     3     "17.02" "4.08"  3.23  "3.85" 
#> # ℹ 16 more rows
…
