Randomize a Data Frame, Matrix, or Vector — run_randomize • pondeR
…
run_randomize(c(a = 1, b = 2, c = 3, d = 4), p = 0.5, seed = 7)
#> b c 
#> 2 3 

## ------------------------------------------------------------------
## 6. Per-group: single column, explicit n
## ------------------------------------------------------------------
run_randomize(
  iris,
  per_group = list(list("Species", n = 10)),
  seed = 2024
)
#> # A tibble: 30 × 5
#>    Sepal.Length Sepal.Width Petal.Length Petal.Width Species   
#>           <dbl>       <dbl>        <dbl>       <dbl> <fct>     
#>  1          6.7         3.1          4.4         1.4 versicolor
#>  2          6.1         3            4.9         1.8 virginica 
#>  3          7           3.2          4.7         1.4 versicolor
#>  4          6           2.2          5           1.5 virginica 
#>  5          6.7         3.1          5.6         2.4 virginica 
#>  6          6.7         3.3          5.7         2.5 virginica 
#>  7          5.4         3.7          1.5         0.2 setosa    
#>  8          5.4         3.9          1.3         0.4 setosa    
#>  9          5           3.5          1.3         0.3 setosa    
#> 10          6.3         2.7          4.9         1.8 virginica 
#> # ℹ 20 more rows

## ------------------------------------------------------------------
## 7. Per-group: single column, explicit p
## ------------------------------------------------------------------
run_randomize(
  iris,
  per_group = list(list("Species", p = 0.6)),
  seed = 2024
)
#> # A tibble: 90 × 5
#>    Sepal.Length Sepal.Width Petal.Length Petal.Width Species   
#>           <dbl>       <dbl>        <dbl>       <dbl> <fct>     
#>  1          5           3.2          1.2         0.2 setosa    
#>  2          7           3.2          4.7         1.4 versicolor
#>  3          7.1         3            5.9         2.1 virginica 
#>  4          6.2         3.4          5.4         2.3 virginica 
#>  5          6.5         3            5.2         2   virginica 
#>  6          5.6         2.5          3.9         1.1 versicolor
#>  7          5.1         3.8          1.5         0.3 setosa    
#>  8          6           3            4.8         1.8 virginica 
#>  9          6.5         2.8          4.6         1.5 versicolor
#> 10          7.3         2.9          6.3         1.8 virginica 
#> # ℹ 80 more rows
…
